{
  "HorizonLayout": [
    {
      "layout": "logo",
      "showMenu": true,
      "showSearch": true,
      "showLogo": true
    },
    {
      "layout": "bannerImage",
      "isSlider": true,
      "autoPlay": true,
      "showNumber": false,
      "design": "default",
      "showBackGround": true,
      "radius": 2,
      "items": [
        {
          "category": 206,
          "image": "https://qwickpick.com/wp-content/uploads/2023/03/banner-1.jpg",
          "padding": 15
        },
        {
          "category": 209,
          "image": "https://qwickpick.com/wp-content/uploads/2023/03/banner-2.jpg",
          "padding": 15
        },
        {
          "category": 208,
          "image": "https://qwickpick.com/wp-content/uploads/2023/03/banner-3.jpg",
          "padding": 15
        }
      ]
    },
    {
      "line": false,
      "columns": 4,
      "type": "image",
      "showShortDescription": true,
      "marginRight": 10,
      "imageSpacing": 0,
      "spacing": 12,
      "itemSize": {
        "width": 370,
        "height": 110
      },
      "radius": 5,
      "border": 0.6,
      "imageBoxFit": "fitWidth",
      "labelFontSize": 14,
      "noBackground": false,
      "enableBorder": false,
      "marginX": 0,
      "marginLeft": 10,
      "marginY": 0,
      "layout": "category",
      "paddingX": 2,
      "imageBorderStyle": "solid",
      "size": 1,
      "hideTitle": false,
      "textAlignment": "topCenter",
      "marginBottom": 10,
      "wrap": true,
      "items": [
        {
          "image": "https://qwickpick.com/wp-content/uploads/2023/03/Breakfast-and-packaged-food-1-small.png",
          "showDescription": false,
          "originalColor": true,
          "showText": true,
          "keepDefaultTitle": false,
          "fontSize": 14,
          "title": "Breakfast & Packaged Food",
          "category": 214,
          "fontWeight": 300
        },
        {
          "image": "https://qwickpick.com/wp-content/uploads/2023/03/Dairy-Bakery-Eggs-1-small.png",
          "showDescription": false,
          "originalColor": true,
          "showText": true,
          "keepDefaultTitle": false,
          "fontSize": 14,
          "title": "Dairy, Bread & Eggs",
          "category": 212,
          "fontWeight": 300
        },
        {
          "image": "https://qwickpick.com/wp-content/uploads/2023/03/Sauce-Jam-Pickle-1-small.png",
          "showDescription": false,
          "originalColor": true,
          "showText": true,
          "keepDefaultTitle": false,
          "fontSize": 14,
          "title": "Sauce, Jam & Pickle",
          "category": 215,
          "fontWeight": 300
        },
        {
          "image": "https://qwickpick.com/wp-content/uploads/2023/03/eFgZ1653564101968-kitchen20pantry-small.png",
          "showDescription": false,
          "originalColor": true,
          "showText": true,
          "keepDefaultTitle": false,
          "fontSize": 14,
          "title": "Tea, Coffee & More",
          "category": 211,
          "fontWeight": 300
        },
        {
          "image": "https://qwickpick.com/wp-content/uploads/2023/03/Biscuits-and-snacks-1-small.png",
          "showDescription": false,
          "originalColor": true,
          "showText": true,
          "keepDefaultTitle": false,
          "fontSize": 14,
          "title": "Biscuit, Snacks & Chocolate",
          "category": 208,
          "fontWeight": 200
        },
        {
          "image": "https://qwickpick.com/wp-content/uploads/2023/03/Cooking-Essentials-1-small.png",
          "showDescription": false,
          "originalColor": true,
          "showText": true,
          "keepDefaultTitle": false,
          "fontSize": 14,
          "category": 210,
          "title": "Oil, Masala & Dryfruits",
          "fontWeight": 200
        },
        {
          "image": "https://qwickpick.com/wp-content/uploads/2023/03/dairy-and-frozen-small.png",
          "showDescription": false,
          "originalColor": true,
          "showText": true,
          "keepDefaultTitle": false,
          "fontSize": 14,
          "category": 207,
          "title": "Frozen Foods",
          "fontWeight": 200
        },
        {
          "image": "https://qwickpick.com/wp-content/uploads/2023/03/Fruits-vegetables-exotics-1-small.png",
          "showDescription": false,
          "originalColor": true,
          "showText": true,
          "keepDefaultTitle": false,
          "fontSize": 14,
          "category": 206,
          "title": "Fruits & Vegetables",
          "fontWeight": 200
        },
        {
          "image": "https://qwickpick.com/wp-content/uploads/2023/03/rice-small.png",
          "showDescription": false,
          "originalColor": true,
          "showText": true,
          "keepDefaultTitle": false,
          "fontSize": 14,
          "title": "Atta, Rice, Dal & Poha",
          "category": 209,
          "fontWeight": 200
        },
        {
          "image": "https://qwickpick.com/wp-content/uploads/2023/06/Cleaning-essesntials.png",
          "showDescription": false,
          "originalColor": true,
          "showText": true,
          "keepDefaultTitle": false,
          "fontSize": 14,
          "title": "Cleaning Essentials",
          "category": 222,
          "fontWeight": 200
        }
      ],
      "marginTop": 10,
      "paddingY": 6
    },
    {
      "imageBoxfit": "cover",
      "hideEmptyProductLayout": false,
      "parallax": false,
      "parallaxImageRatio": 1.2,
      "showCartButtonWithQuantity": false,
      "showOnlyImage": false,
      "onSale": false,
      "tag": "218",
      "image": "",
      "productListItemHeight": 125,
      "cardDesign": "card",
      "hideEmptyProductListRating": false,
      "name": "Top Picks ⚡️",
      "layout": "saleOff",
      "isSnapping": true,
      "rows": 1,
      "columns": 0,
      "imageRatio": 1.2,
      "hMargin": 9,
      "vMargin": 30,
      "hPadding": 8,
      "vPadding": 6,
      "showStockStatus": false,
      "enableRating": false,
      "hideTitle": false,
      "hideStore": false,
      "hidePrice": false,
      "featured": false,
      "showHeart": false,
      "showCartButton": false,
      "cartIconRadius": 9,
      "showQuantity": false,
      "showCartIconColor": false,
      "showCartIcon": false,
      "enableBottomAddToCart": false,
      "borderRadius": 12,
      "backgroundRadius": 0,
      "showCountDown": true,
      "spaceWidth": 156.53672329215112,
      "backgroundHeight": 288,
      "backgroundBoxFit": "contain",
      "boxShadow": {
        "blurRadius": 14,
        "colorOpacity": 0.1,
        "spreadRadius": 10,
        "x": 0,
        "y": 6
      }
    }
  ],
  "Setting": {
    "MainColor": "#FFCF42",
    "FontFamily": "Roboto",
    "FontHeader": "Raleway",
    "ProductListLayout": "list",
    "StickyHeader": false,
    "ShowChat": true,
    "TabBarConfig": {
      "enable": true,
      "isSafeArea": true,
      "color": "#FFCF42",
      "colorCart": null,
      "colorIcon": null,
      "colorActiveIcon": "ff424242",
      "iconSize": 22,
      "indicatorStyle": "none",
      "showFloatingClip": true,
      "showFloating": false,
      "enableOnTop": false,
      "radiusTopLeft": 21,
      "radiusTopRight": 21,
      "radiusBottomLeft": 0,
      "radiusBottomRight": 0,
      "paddingLeft": 0,
      "paddingRight": 0,
      "paddingBottom": 0,
      "paddingTop": 0,
      "marginTop": 0,
      "marginBottom": 0,
      "marginLeft": 0,
      "marginRight": 0,
      "TabBarIndicator": {
        "height": null,
        "tabPosition": "bottom",
        "topRightRadius": null,
        "topLeftRadius": null,
        "bottomRightRadius": null,
        "bottomLeftRadius": null,
        "color": null,
        "horizontalPadding": 0,
        "verticalPadding": null,
        "strokeWidth": null,
        "radius": null,
        "distanceFromCenter": null,
        "paintingStyle": "fill"
      },
      "TabBarFloating": {
        "position": 0,
        "radius": null,
        "color": null,
        "location": null,
        "width": null,
        "height": null,
        "elevation": null,
        "floatingType": "rectangle"
      }
    }
  },
  "TabBar": [
    {
      "layout": "home",
      "icon": "assets/icons/tabs/icon-home.png",
      "pos": 100,
      "key": "a37v3okvvh",
      "defaultTab": true
    },
    {
      "layout": "cart",
      "icon": "assets/icons/tabs/icon-cart2.png",
      "pos": 400,
      "key": "a37v3okvvh",
      "defaultTab": false
    },
    {
      "layout": "profile",
      "icon": "assets/icons/tabs/icon-user.png",
      "showChat": true,
      "pos": 500,
      "key": "a37v3okvvh",
      "defaultTab": false
    }
  ],
  "Drawer": null,
  "AppBar": {}
}
